ISO-10303-21;
HEADER;
/* Generated by software containing ST-Developer
 * from STEP Tools, Inc. (www.steptools.com) 
 */

FILE_DESCRIPTION(
/* description */ (''),
/* implementation_level */ '2;1');

FILE_NAME(
/* name */ 'Holder_A v1.step',
/* time_stamp */ '2023-07-15T07:27:11+02:00',
/* author */ (''),
/* organization */ (''),
/* preprocessor_version */ 'ST-DEVELOPER v19.2',
/* originating_system */ 'Autodesk Translation Framework v12.6.0.85',
/* authorisation */ '');

FILE_SCHEMA (('AUTOMOTIVE_DESIGN { 1 0 10303 214 3 1 1 }'));
ENDSEC;

DATA;
#10=MECHANICAL_DESIGN_GEOMETRIC_PRESENTATION_REPRESENTATION('',(#13),#321);
#11=SHAPE_REPRESENTATION_RELATIONSHIP('SRR','None',#328,#12);
#12=ADVANCED_BREP_SHAPE_REPRESENTATION('',(#14),#320);
#13=STYLED_ITEM('',(#337),#14);
#14=MANIFOLD_SOLID_BREP('Bry\X2\0142\X0\a1',#193);
#15=CYLINDRICAL_SURFACE('',#213,1.4);
#16=FACE_BOUND('',#33,.T.);
#17=FACE_BOUND('',#41,.T.);
#18=CIRCLE('',#210,1.4);
#19=CIRCLE('',#214,1.4);
#20=FACE_OUTER_BOUND('',#30,.T.);
#21=FACE_OUTER_BOUND('',#31,.T.);
#22=FACE_OUTER_BOUND('',#32,.T.);
#23=FACE_OUTER_BOUND('',#34,.T.);
#24=FACE_OUTER_BOUND('',#35,.T.);
#25=FACE_OUTER_BOUND('',#36,.T.);
#26=FACE_OUTER_BOUND('',#37,.T.);
#27=FACE_OUTER_BOUND('',#38,.T.);
#28=FACE_OUTER_BOUND('',#39,.T.);
#29=FACE_OUTER_BOUND('',#40,.T.);
#30=EDGE_LOOP('',(#126,#127,#128,#129));
#31=EDGE_LOOP('',(#130,#131,#132,#133,#134));
#32=EDGE_LOOP('',(#135,#136,#137,#138));
#33=EDGE_LOOP('',(#139));
#34=EDGE_LOOP('',(#140,#141,#142,#143,#144,#145));
#35=EDGE_LOOP('',(#146,#147,#148,#149));
#36=EDGE_LOOP('',(#150,#151,#152,#153));
#37=EDGE_LOOP('',(#154,#155,#156,#157,#158,#159));
#38=EDGE_LOOP('',(#160,#161,#162,#163));
#39=EDGE_LOOP('',(#164,#165,#166,#167));
#40=EDGE_LOOP('',(#168,#169,#170,#171,#172));
#41=EDGE_LOOP('',(#173));
#42=LINE('',#271,#64);
#43=LINE('',#273,#65);
#44=LINE('',#275,#66);
#45=LINE('',#276,#67);
#46=LINE('',#280,#68);
#47=LINE('',#282,#69);
#48=LINE('',#283,#70);
#49=LINE('',#284,#71);
#50=LINE('',#287,#72);
#51=LINE('',#289,#73);
#52=LINE('',#290,#74);
#53=LINE('',#295,#75);
#54=LINE('',#297,#76);
#55=LINE('',#298,#77);
#56=LINE('',#301,#78);
#57=LINE('',#302,#79);
#58=LINE('',#306,#80);
#59=LINE('',#309,#81);
#60=LINE('',#311,#82);
#61=LINE('',#312,#83);
#62=LINE('',#314,#84);
#63=LINE('',#316,#85);
#64=VECTOR('',#223,10.);
#65=VECTOR('',#224,10.);
#66=VECTOR('',#225,10.);
#67=VECTOR('',#226,10.);
#68=VECTOR('',#229,10.);
#69=VECTOR('',#230,10.);
#70=VECTOR('',#231,10.);
#71=VECTOR('',#232,10.);
#72=VECTOR('',#235,10.);
#73=VECTOR('',#236,10.);
#74=VECTOR('',#237,10.);
#75=VECTOR('',#242,10.);
#76=VECTOR('',#243,10.);
#77=VECTOR('',#244,10.);
#78=VECTOR('',#247,10.);
#79=VECTOR('',#248,10.);
#80=VECTOR('',#253,1.4);
#81=VECTOR('',#256,10.);
#82=VECTOR('',#257,10.);
#83=VECTOR('',#258,10.);
#84=VECTOR('',#261,10.);
#85=VECTOR('',#264,10.);
#86=VERTEX_POINT('',#269);
#87=VERTEX_POINT('',#270);
#88=VERTEX_POINT('',#272);
#89=VERTEX_POINT('',#274);
#90=VERTEX_POINT('',#278);
#91=VERTEX_POINT('',#279);
#92=VERTEX_POINT('',#281);
#93=VERTEX_POINT('',#286);
#94=VERTEX_POINT('',#288);
#95=VERTEX_POINT('',#291);
#96=VERTEX_POINT('',#294);
#97=VERTEX_POINT('',#296);
#98=VERTEX_POINT('',#300);
#99=VERTEX_POINT('',#304);
#100=VERTEX_POINT('',#308);
#101=VERTEX_POINT('',#310);
#102=EDGE_CURVE('',#86,#87,#42,.T.);
#103=EDGE_CURVE('',#88,#86,#43,.T.);
#104=EDGE_CURVE('',#88,#89,#44,.T.);
#105=EDGE_CURVE('',#87,#89,#45,.T.);
#106=EDGE_CURVE('',#90,#91,#46,.T.);
#107=EDGE_CURVE('',#92,#90,#47,.T.);
#108=EDGE_CURVE('',#89,#92,#48,.T.);
#109=EDGE_CURVE('',#91,#88,#49,.T.);
#110=EDGE_CURVE('',#93,#87,#50,.T.);
#111=EDGE_CURVE('',#94,#93,#51,.T.);
#112=EDGE_CURVE('',#86,#94,#52,.T.);
#113=EDGE_CURVE('',#95,#95,#18,.T.);
#114=EDGE_CURVE('',#92,#96,#53,.T.);
#115=EDGE_CURVE('',#97,#96,#54,.T.);
#116=EDGE_CURVE('',#93,#97,#55,.T.);
#117=EDGE_CURVE('',#90,#98,#56,.T.);
#118=EDGE_CURVE('',#96,#98,#57,.T.);
#119=EDGE_CURVE('',#99,#99,#19,.T.);
#120=EDGE_CURVE('',#99,#95,#58,.T.);
#121=EDGE_CURVE('',#94,#100,#59,.T.);
#122=EDGE_CURVE('',#101,#100,#60,.T.);
#123=EDGE_CURVE('',#91,#101,#61,.T.);
#124=EDGE_CURVE('',#98,#101,#62,.T.);
#125=EDGE_CURVE('',#100,#97,#63,.T.);
#126=ORIENTED_EDGE('',*,*,#102,.F.);
#127=ORIENTED_EDGE('',*,*,#103,.F.);
#128=ORIENTED_EDGE('',*,*,#104,.T.);
#129=ORIENTED_EDGE('',*,*,#105,.F.);
#130=ORIENTED_EDGE('',*,*,#106,.F.);
#131=ORIENTED_EDGE('',*,*,#107,.F.);
#132=ORIENTED_EDGE('',*,*,#108,.F.);
#133=ORIENTED_EDGE('',*,*,#104,.F.);
#134=ORIENTED_EDGE('',*,*,#109,.F.);
#135=ORIENTED_EDGE('',*,*,#102,.T.);
#136=ORIENTED_EDGE('',*,*,#110,.F.);
#137=ORIENTED_EDGE('',*,*,#111,.F.);
#138=ORIENTED_EDGE('',*,*,#112,.F.);
#139=ORIENTED_EDGE('',*,*,#113,.F.);
#140=ORIENTED_EDGE('',*,*,#105,.T.);
#141=ORIENTED_EDGE('',*,*,#108,.T.);
#142=ORIENTED_EDGE('',*,*,#114,.T.);
#143=ORIENTED_EDGE('',*,*,#115,.F.);
#144=ORIENTED_EDGE('',*,*,#116,.F.);
#145=ORIENTED_EDGE('',*,*,#110,.T.);
#146=ORIENTED_EDGE('',*,*,#107,.T.);
#147=ORIENTED_EDGE('',*,*,#117,.T.);
#148=ORIENTED_EDGE('',*,*,#118,.F.);
#149=ORIENTED_EDGE('',*,*,#114,.F.);
#150=ORIENTED_EDGE('',*,*,#119,.F.);
#151=ORIENTED_EDGE('',*,*,#120,.T.);
#152=ORIENTED_EDGE('',*,*,#113,.T.);
#153=ORIENTED_EDGE('',*,*,#120,.F.);
#154=ORIENTED_EDGE('',*,*,#103,.T.);
#155=ORIENTED_EDGE('',*,*,#112,.T.);
#156=ORIENTED_EDGE('',*,*,#121,.T.);
#157=ORIENTED_EDGE('',*,*,#122,.F.);
#158=ORIENTED_EDGE('',*,*,#123,.F.);
#159=ORIENTED_EDGE('',*,*,#109,.T.);
#160=ORIENTED_EDGE('',*,*,#106,.T.);
#161=ORIENTED_EDGE('',*,*,#123,.T.);
#162=ORIENTED_EDGE('',*,*,#124,.F.);
#163=ORIENTED_EDGE('',*,*,#117,.F.);
#164=ORIENTED_EDGE('',*,*,#111,.T.);
#165=ORIENTED_EDGE('',*,*,#116,.T.);
#166=ORIENTED_EDGE('',*,*,#125,.F.);
#167=ORIENTED_EDGE('',*,*,#121,.F.);
#168=ORIENTED_EDGE('',*,*,#125,.T.);
#169=ORIENTED_EDGE('',*,*,#115,.T.);
#170=ORIENTED_EDGE('',*,*,#118,.T.);
#171=ORIENTED_EDGE('',*,*,#124,.T.);
#172=ORIENTED_EDGE('',*,*,#122,.T.);
#173=ORIENTED_EDGE('',*,*,#119,.T.);
#174=PLANE('',#207);
#175=PLANE('',#208);
#176=PLANE('',#209);
#177=PLANE('',#211);
#178=PLANE('',#212);
#179=PLANE('',#215);
#180=PLANE('',#216);
#181=PLANE('',#217);
#182=PLANE('',#218);
#183=ADVANCED_FACE('',(#20),#174,.F.);
#184=ADVANCED_FACE('',(#21),#175,.F.);
#185=ADVANCED_FACE('',(#22,#16),#176,.F.);
#186=ADVANCED_FACE('',(#23),#177,.T.);
#187=ADVANCED_FACE('',(#24),#178,.T.);
#188=ADVANCED_FACE('',(#25),#15,.F.);
#189=ADVANCED_FACE('',(#26),#179,.T.);
#190=ADVANCED_FACE('',(#27),#180,.T.);
#191=ADVANCED_FACE('',(#28),#181,.T.);
#192=ADVANCED_FACE('',(#29,#17),#182,.T.);
#193=CLOSED_SHELL('',(#183,#184,#185,#186,#187,#188,#189,#190,#191,#192));
#194=DERIVED_UNIT_ELEMENT(#196,1.);
#195=DERIVED_UNIT_ELEMENT(#323,-3.);
#196=(
MASS_UNIT()
NAMED_UNIT(*)
SI_UNIT(.KILO.,.GRAM.)
);
#197=DERIVED_UNIT((#194,#195));
#198=MEASURE_REPRESENTATION_ITEM('density measure',
POSITIVE_RATIO_MEASURE(7850.),#197);
#199=PROPERTY_DEFINITION_REPRESENTATION(#204,#201);
#200=PROPERTY_DEFINITION_REPRESENTATION(#205,#202);
#201=REPRESENTATION('material name',(#203),#320);
#202=REPRESENTATION('density',(#198),#320);
#203=DESCRIPTIVE_REPRESENTATION_ITEM('Stal','Stal');
#204=PROPERTY_DEFINITION('material property','material name',#330);
#205=PROPERTY_DEFINITION('material property','density of part',#330);
#206=AXIS2_PLACEMENT_3D('',#267,#219,#220);
#207=AXIS2_PLACEMENT_3D('',#268,#221,#222);
#208=AXIS2_PLACEMENT_3D('',#277,#227,#228);
#209=AXIS2_PLACEMENT_3D('',#285,#233,#234);
#210=AXIS2_PLACEMENT_3D('',#292,#238,#239);
#211=AXIS2_PLACEMENT_3D('',#293,#240,#241);
#212=AXIS2_PLACEMENT_3D('',#299,#245,#246);
#213=AXIS2_PLACEMENT_3D('',#303,#249,#250);
#214=AXIS2_PLACEMENT_3D('',#305,#251,#252);
#215=AXIS2_PLACEMENT_3D('',#307,#254,#255);
#216=AXIS2_PLACEMENT_3D('',#313,#259,#260);
#217=AXIS2_PLACEMENT_3D('',#315,#262,#263);
#218=AXIS2_PLACEMENT_3D('',#317,#265,#266);
#219=DIRECTION('axis',(0.,0.,1.));
#220=DIRECTION('refdir',(1.,0.,0.));
#221=DIRECTION('center_axis',(0.,0.,-1.));
#222=DIRECTION('ref_axis',(-1.,0.,0.));
#223=DIRECTION('',(-1.,0.,0.));
#224=DIRECTION('',(0.,-1.,0.));
#225=DIRECTION('',(-1.,0.,0.));
#226=DIRECTION('',(0.,1.,0.));
#227=DIRECTION('center_axis',(0.,1.,0.));
#228=DIRECTION('ref_axis',(0.,0.,1.));
#229=DIRECTION('',(1.,0.,0.));
#230=DIRECTION('',(0.,0.,1.));
#231=DIRECTION('',(0.00395836859549485,0.,0.999992165628342));
#232=DIRECTION('',(0.,0.,-1.));
#233=DIRECTION('center_axis',(0.,1.,0.));
#234=DIRECTION('ref_axis',(-1.,0.,0.));
#235=DIRECTION('',(0.00395836859549485,0.,0.999992165628342));
#236=DIRECTION('',(-1.,0.,0.));
#237=DIRECTION('',(0.,0.,-1.));
#238=DIRECTION('center_axis',(0.,-1.,0.));
#239=DIRECTION('ref_axis',(-1.,0.,0.));
#240=DIRECTION('center_axis',(-0.999992165628342,0.,0.00395836859549485));
#241=DIRECTION('ref_axis',(0.00395836859549485,0.,0.999992165628342));
#242=DIRECTION('',(0.,1.,0.));
#243=DIRECTION('',(0.00395836859549485,0.,0.999992165628342));
#244=DIRECTION('',(0.,1.,0.));
#245=DIRECTION('center_axis',(-1.,0.,0.));
#246=DIRECTION('ref_axis',(0.,0.,1.));
#247=DIRECTION('',(0.,1.,0.));
#248=DIRECTION('',(0.,0.,1.));
#249=DIRECTION('center_axis',(0.,1.,0.));
#250=DIRECTION('ref_axis',(-1.,0.,0.));
#251=DIRECTION('center_axis',(0.,-1.,0.));
#252=DIRECTION('ref_axis',(-1.,0.,0.));
#253=DIRECTION('',(0.,-1.,0.));
#254=DIRECTION('center_axis',(1.,0.,0.));
#255=DIRECTION('ref_axis',(0.,0.,-1.));
#256=DIRECTION('',(0.,1.,0.));
#257=DIRECTION('',(0.,0.,-1.));
#258=DIRECTION('',(0.,1.,0.));
#259=DIRECTION('center_axis',(0.,0.,1.));
#260=DIRECTION('ref_axis',(1.,0.,0.));
#261=DIRECTION('',(1.,0.,0.));
#262=DIRECTION('center_axis',(0.,0.,-1.));
#263=DIRECTION('ref_axis',(-1.,0.,0.));
#264=DIRECTION('',(-1.,0.,0.));
#265=DIRECTION('center_axis',(0.,1.,0.));
#266=DIRECTION('ref_axis',(-1.,0.,0.));
#267=CARTESIAN_POINT('',(0.,0.,0.));
#268=CARTESIAN_POINT('Origin',(33.0136657193064,0.,-22.047752495811));
#269=CARTESIAN_POINT('',(33.0136657193064,0.,-22.047752495811));
#270=CARTESIAN_POINT('',(23.0077281198958,0.,-22.047752495811));
#271=CARTESIAN_POINT('',(30.5022853204361,0.,-22.047752495811));
#272=CARTESIAN_POINT('',(33.0136657193064,1.8,-22.047752495811));
#273=CARTESIAN_POINT('',(33.0136657193064,0.,-22.047752495811));
#274=CARTESIAN_POINT('',(23.0077281198958,1.8,-22.047752495811));
#275=CARTESIAN_POINT('',(23.0077281198958,1.8,-22.047752495811));
#276=CARTESIAN_POINT('',(23.0077281198958,0.,-22.047752495811));
#277=CARTESIAN_POINT('Origin',(28.0106969196011,1.8,-17.797752495811));
#278=CARTESIAN_POINT('',(23.0136657193064,1.8,-17.547752495811));
#279=CARTESIAN_POINT('',(33.0136657193064,1.8,-17.547752495811));
#280=CARTESIAN_POINT('',(25.5121813194538,1.8,-17.547752495811));
#281=CARTESIAN_POINT('',(23.0136657193064,1.8,-20.547752495811));
#282=CARTESIAN_POINT('',(23.0136657193064,1.8,-19.172752495811));
#283=CARTESIAN_POINT('',(22.9963867841903,1.8,-24.912884072044));
#284=CARTESIAN_POINT('',(33.0136657193064,1.8,-17.672752495811));
#285=CARTESIAN_POINT('Origin',(27.9909049215658,0.,-24.797752495811));
#286=CARTESIAN_POINT('',(22.9681441238251,0.,-32.047752495811));
#287=CARTESIAN_POINT('',(22.9681441238251,0.,-32.047752495811));
#288=CARTESIAN_POINT('',(33.0136657193064,0.,-32.047752495811));
#289=CARTESIAN_POINT('',(33.0136657193064,0.,-32.047752495811));
#290=CARTESIAN_POINT('',(33.0136657193064,0.,-13.547752495811));
#291=CARTESIAN_POINT('',(29.3958261751313,0.,-28.047752495811));
#292=CARTESIAN_POINT('Origin',(27.9958261751313,0.,-28.047752495811));
#293=CARTESIAN_POINT('Origin',(22.9681441238251,0.,-32.047752495811));
#294=CARTESIAN_POINT('',(23.0136657193064,4.,-20.547752495811));
#295=CARTESIAN_POINT('',(23.0136657193064,0.,-20.547752495811));
#296=CARTESIAN_POINT('',(22.9681441238251,4.,-32.047752495811));
#297=CARTESIAN_POINT('',(22.9681441238251,4.,-32.047752495811));
#298=CARTESIAN_POINT('',(22.9681441238251,0.,-32.047752495811));
#299=CARTESIAN_POINT('Origin',(23.0136657193064,0.,-20.547752495811));
#300=CARTESIAN_POINT('',(23.0136657193064,4.,-17.547752495811));
#301=CARTESIAN_POINT('',(23.0136657193064,0.,-17.547752495811));
#302=CARTESIAN_POINT('',(23.0136657193064,4.,-20.547752495811));
#303=CARTESIAN_POINT('Origin',(27.9958261751313,0.,-28.047752495811));
#304=CARTESIAN_POINT('',(29.3958261751313,4.,-28.047752495811));
#305=CARTESIAN_POINT('Origin',(27.9958261751313,4.,-28.047752495811));
#306=CARTESIAN_POINT('',(29.3958261751313,0.,-28.047752495811));
#307=CARTESIAN_POINT('Origin',(33.0136657193064,0.,-17.547752495811));
#308=CARTESIAN_POINT('',(33.0136657193064,4.,-32.047752495811));
#309=CARTESIAN_POINT('',(33.0136657193064,0.,-32.047752495811));
#310=CARTESIAN_POINT('',(33.0136657193064,4.,-17.547752495811));
#311=CARTESIAN_POINT('',(33.0136657193064,4.,-13.547752495811));
#312=CARTESIAN_POINT('',(33.0136657193064,0.,-17.547752495811));
#313=CARTESIAN_POINT('Origin',(23.0136657193064,0.,-17.547752495811));
#314=CARTESIAN_POINT('',(33.0136657193064,4.,-17.547752495811));
#315=CARTESIAN_POINT('Origin',(33.0136657193064,0.,-32.047752495811));
#316=CARTESIAN_POINT('',(33.0136657193064,4.,-32.047752495811));
#317=CARTESIAN_POINT('Origin',(27.9909049215658,4.,-24.797752495811));
#318=UNCERTAINTY_MEASURE_WITH_UNIT(LENGTH_MEASURE(0.01),#322,
'DISTANCE_ACCURACY_VALUE',
'Maximum model space distance between geometric entities at asserted c
onnectivities');
#319=UNCERTAINTY_MEASURE_WITH_UNIT(LENGTH_MEASURE(0.01),#322,
'DISTANCE_ACCURACY_VALUE',
'Maximum model space distance between geometric entities at asserted c
onnectivities');
#320=(
GEOMETRIC_REPRESENTATION_CONTEXT(3)
GLOBAL_UNCERTAINTY_ASSIGNED_CONTEXT((#318))
GLOBAL_UNIT_ASSIGNED_CONTEXT((#322,#324,#325))
REPRESENTATION_CONTEXT('','3D')
);
#321=(
GEOMETRIC_REPRESENTATION_CONTEXT(3)
GLOBAL_UNCERTAINTY_ASSIGNED_CONTEXT((#319))
GLOBAL_UNIT_ASSIGNED_CONTEXT((#322,#324,#325))
REPRESENTATION_CONTEXT('','3D')
);
#322=(
LENGTH_UNIT()
NAMED_UNIT(*)
SI_UNIT(.MILLI.,.METRE.)
);
#323=(
LENGTH_UNIT()
NAMED_UNIT(*)
SI_UNIT($,.METRE.)
);
#324=(
NAMED_UNIT(*)
PLANE_ANGLE_UNIT()
SI_UNIT($,.RADIAN.)
);
#325=(
NAMED_UNIT(*)
SI_UNIT($,.STERADIAN.)
SOLID_ANGLE_UNIT()
);
#326=SHAPE_DEFINITION_REPRESENTATION(#327,#328);
#327=PRODUCT_DEFINITION_SHAPE('',$,#330);
#328=SHAPE_REPRESENTATION('',(#206),#320);
#329=PRODUCT_DEFINITION_CONTEXT('part definition',#334,'design');
#330=PRODUCT_DEFINITION('Holder_A','Holder_A v1',#331,#329);
#331=PRODUCT_DEFINITION_FORMATION('',$,#336);
#332=PRODUCT_RELATED_PRODUCT_CATEGORY('Holder_A v1','Holder_A v1',(#336));
#333=APPLICATION_PROTOCOL_DEFINITION('international standard',
'automotive_design',2009,#334);
#334=APPLICATION_CONTEXT(
'Core Data for Automotive Mechanical Design Process');
#335=PRODUCT_CONTEXT('part definition',#334,'mechanical');
#336=PRODUCT('Holder_A','Holder_A v1',$,(#335));
#337=PRESENTATION_STYLE_ASSIGNMENT((#338));
#338=SURFACE_STYLE_USAGE(.BOTH.,#339);
#339=SURFACE_SIDE_STYLE('',(#340));
#340=SURFACE_STYLE_FILL_AREA(#341);
#341=FILL_AREA_STYLE('Stal \X2\2014\X0\ satynowa',(#342));
#342=FILL_AREA_STYLE_COLOUR('Stal \X2\2014\X0\ satynowa',#343);
#343=COLOUR_RGB('Stal \X2\2014\X0\ satynowa',0.627450980392157,0.627450980392157,
0.627450980392157);
ENDSEC;
END-ISO-10303-21;
